[
  {
    "title": "Brand",
    "items": [
      {
        "title": "Overview",
        "path": "brand/overview"
      },
      {
        "title": "Logo",
        "path": "brand-logo",
        "items": [
          {
            "title": "Core logo",
            "path": "core-logo"
          },
          {
            "title": "Logomark",
            "path": "logomark"
          },
          {
            "title": "Branded lockups",
            "path": "branded-lockups"
          }
        ]
      },
      {
        "title": "Brand Design",
        "path": "brand-design",
        "items": [
          {
            "title": "Color",
            "path": "color"
          },
          {
            "title": "Typography",
            "path": "typography"
          },
          {
            "title": "Marketing illustrations",
            "path": "marketing-illustrations"
          },
          {
            "title": "Motion",
            "path": "motion"
          },
          {
            "title": "Photography",
            "path": "photography"
          }
        ]
      }
    ]
  },
  {
    "title": "Product",
    "items": [
      {
        "title": "Get started",
        "path": "get-started",
        "items": [
          {
            "title": "Navigating Pajamas",
            "path": "navigating-pajamas"
          },
          {
            "title": "Contributing",
            "path": "contributing"
          },
          {
            "title": "Principles",
            "path": "principles"
          },
          {
            "title": "Component lifecycle",
            "path": "lifecycle"
          },
          {
            "title": "Pajamas UI Kit (Figma)",
            "items": [
              {
                "title": "File structure",
                "path": "uik-file-structure"
              },
              {
                "title": "Release process",
                "path": "uik-release-process"
              },
              {
                "title": "Release notes",
                "path": "uik-release-notes"
              },
              {
                "title": "Roadmap",
                "path": "uik-roadmap"
              }
            ]
          },
          {
            "title": "Figma guides",
            "items": [
              {
                "title": "Components",
                "path": "uik-components"
              },
              {
                "title": "Libraries",
                "path": "uik-libraries"
              },
              {
                "title": "Annotation",
                "path": "uik-annotation"
              },
              {
                "title": "Sharing",
                "path": "uik-sharing"
              },
              {
                "title": "Breaking changes",
                "path": "uik-breaking-changes"
              }
            ]
          },
          {
            "title": "Resources",
            "path": "resources"
          },
          {
            "title": "Repository",
            "path": "https://gitlab.com/gitlab-org/gitlab-services/design.gitlab.com"
          }
        ]
      },
      {
        "title": "Foundations",
        "path": "product-foundations",
        "items": [
          {
            "title": "Design tokens",
            "path": "design-tokens"
          },
          {
            "title": "Color",
            "path": "color"
          },
          {
            "title": "Typography",
            "items": [
              {
                "title": "Fundamentals",
                "path": "type-fundamentals"
              },
              {
                "title": "Type Scales",
                "path": "type-scales"
              },
              {
                "title": "Markdown",
                "path": "type-markdown"
              }
            ]
          },
          {
            "title": "Spacing",
            "path": "spacing"
          },
          {
            "title": "Layout",
            "path": "layout"
          },
          {
            "title": "Elevation",
            "path": "elevation"
          },
          {
            "title": "Motion",
            "path": "motion"
          },
          {
            "title": "Iconography",
            "path": "iconography"
          },
          {
            "title": "Illustration",
            "path": "illustration"
          }
        ]
      },
      {
        "title": "Components",
        "path": "components",
        "items": [
          {
            "title": "Overview",
            "path": "overview"
          },
          {
            "title": "Accordion",
            "path": "accordion"
          },
          {
            "title": "Alert",
            "path": "alert"
          },
          {
            "title": "Avatar",
            "path": "avatar"
          },
          {
            "title": "Badge",
            "path": "badge"
          },
          {
            "title": "Banner",
            "path": "banner"
          },
          {
            "title": "Breadcrumb",
            "path": "breadcrumb"
          },
          {
            "title": "Broadcast message",
            "path": "broadcast-message"
          },
          {
            "title": "Button",
            "path": "button"
          },
          {
            "title": "Card",
            "path": "card"
          },
          {
            "title": "Color picker",
            "path": "color-picker"
          },
          {
            "title": "Drawer",
            "path": "drawer"
          },
          {
            "title": "Dropdown",
            "items": [
              {
                "title": "Overview",
                "path": "dropdown-overview"
              },
              {
                "title": "Disclosure",
                "path": "dropdown-disclosure"
              },
              {
                "title": "Combobox",
                "path": "dropdown-combobox"
              }
            ]
          },
          {
            "title": "Form elements",
            "items": [
              {
                "title": "Checkbox",
                "path": "checkbox"
              },
              {
                "title": "Date picker",
                "path": "date-picker"
              },
              {
                "title": "File uploader",
                "path": "file-uploader"
              },
              {
                "title": "Filter",
                "path": "filter"
              },
              {
                "title": "Radio button",
                "path": "radio-button"
              },
              {
                "title": "Search",
                "path": "search"
              },
              {
                "title": "Select",
                "path": "select"
              },
              {
                "title": "Textarea",
                "path": "textarea"
              },
              {
                "title": "Text input",
                "path": "text-input"
              },
              {
                "title": "Token",
                "path": "token"
              }
            ]
          },
          {
            "title": "Infinite scroll",
            "path": "infinite-scroll"
          },
          {
            "title": "Label",
            "path": "label"
          },
          {
            "title": "Link",
            "path": "link"
          },
          {
            "title": "Modal",
            "path": "modal"
          },
          {
            "title": "Pagination",
            "path": "pagination"
          },
          {
            "title": "Path",
            "path": "path"
          },
          {
            "title": "Popover",
            "path": "popover"
          },
          {
            "title": "Progress bar",
            "path": "progress-bar"
          },
          {
            "title": "Segmented control",
            "path": "segmented-control"
          },
          {
            "title": "Skeleton loader",
            "path": "skeleton-loader"
          },
          {
            "title": "Socks",
            "path": "socks"
          },
          {
            "title": "Sorting",
            "path": "sorting"
          },
          {
            "title": "Spinner",
            "path": "spinner"
          },
          {
            "title": "Table",
            "path": "table"
          },
          {
            "title": "Tabs",
            "path": "tabs"
          },
          {
            "title": "Toast",
            "path": "toast"
          },
          {
            "title": "Toggle",
            "path": "toggle"
          },
          {
            "title": "Tooltip",
            "path": "tooltip"
          },
          {
            "title": "Tree",
            "path": "tree"
          }
        ]
      },
      {
        "title": "Patterns",
        "path": "patterns",
        "items": [
          {
            "title": "Dashboards",
            "path": "dashboards"
          },
          {
            "title": "Empty States",
            "path": "empty-states"
          },
          {
            "title": "Filtering",
            "path": "filtering"
          },
          {
            "title": "Forms",
            "path": "forms"
          },
          {
            "title": "Merge request reports",
            "path": "merge-request-reports"
          },
          {
            "title": "Navigation",
            "path": "navigation"
          },
          {
            "title": "Searching",
            "path": "searching"
          }
        ]
      },
      {
        "title": "Objects",
        "path": "objects",
        "items": [
          {
            "title": "Overview",
            "path": "overview"
          },
          {
            "title": "Job",
            "path": "job"
          },
          {
            "title": "Merge request",
            "path": "merge-request"
          },
          {
            "title": "Work item",
            "path": "work-item"
          }
        ]
      },
      {
        "title": "Data visualization",
        "path": "data-visualization",
        "items": [
          {
            "title": "Overview",
            "path": "overview"
          },
          {
            "title": "Color",
            "path": "color"
          },
          {
            "title": "Charts",
            "path": "charts"
          },
          {
            "title": "Single stat",
            "path": "single-stat"
          },
          {
            "title": "Mini pipeline graph",
            "path": "mini-pipeline-graph"
          }
        ]
      },
      {
        "title": "Content",
        "path": "content",
        "items": [
          {
            "title": "Terminology",
            "path": "terminology"
          },
          {
            "title": "Voice and tone",
            "path": "voice-and-tone"
          },
          {
            "title": "Punctuation",
            "path": "punctuation"
          },
          {
            "title": "Internationalization",
            "path": "i18n"
          },
          {
            "title": "Date and time",
            "path": "date-and-time"
          }
        ]
      },
      {
        "title": "Usability and interaction",
        "path": "usability",
        "items": [
          {
            "title": "AI-human interaction",
            "path": "ai-human-interaction"
          },
          {
            "title": "Affordance",
            "path": "affordance"
          },
          {
            "title": "Contextual help and info",
            "path": "contextual-help"
          },
          {
            "title": "Destructive actions",
            "path": "destructive-actions"
          },
          {
            "title": "Drag and drop",
            "path": "drag-and-drop"
          },
          {
            "title": "Feature management",
            "path": "feature-management"
          },
          {
            "title": "Loading",
            "path": "loading"
          },
          {
            "title": "Obfuscation",
            "path": "obfuscation"
          },
          {
            "title": "Onboarding",
            "path": "onboarding"
          },
          {
            "title": "Progressive disclosure",
            "path": "progressive-disclosure"
          },
          {
            "title": "Saving and feedback",
            "path": "saving-and-feedback"
          },
          {
            "title": "Settings management",
            "path": "settings-management"
          }
        ]
      },
      {
        "title": "Accessibility",
        "path": "accessibility",
        "items": [
          {
            "title": "Statement of compliance",
            "path": "a11y"
          },
          {
            "title": "Inclusive design principles",
            "path": "inclusive-design-principles"
          },
          {
            "title": "Best practices",
            "path": "best-practices"
          },
          {
            "title": "GitLab VPAT®",
            "items": [
              {
                "title": "Section 508 Edition",
                "path": "508"
              },
              {
                "title": "WCAG Edition",
                "path": "wcag"
              }
            ]
          },
          {
            "title": "Audit guides",
            "items": [
              {
                "title": "Overview",
                "path": "audits"
              },
              {
                "title": "Visual",
                "path": "visual"
              },
              {
                "title": "Semantics and content",
                "path": "semantics-and-content"
              },
              {
                "title": "Keyboard-only",
                "path": "keyboard-only"
              },
              {
                "title": "Screen readers",
                "path": "screen-readers"
              }
            ]
          }
        ]
      }
    ]
  }
]